{
    "AppSyncApiName": "authGraphql",
    "DynamoDBBillingMode": "PAY_PER_REQUEST",
    "DynamoDBEnableServerSideEncryption": "false",
    "AuthCognitoUserPoolId": {
        "Fn::GetAtt": [
            "authreactamplify5eab9187",
            "Outputs.UserPoolId"
        ]
    }
}